it systemadministrator citrix,ip deutschland
linux it systemadministrator,ip deutschland
it systemadministrator unix,ip deutschland
systemadministrator citrix,ip deutschland
unix linux,ip deutschland
it systemadministrator,ip deutschland
techniker it,ip deutschland
techniker linux,ip deutschland
systemadministrator linux,ip deutschland
it systemtechniker,ip deutschland
techniker sicherheitstechnik,ip deutschland
systemadministrator it administrator techniker,ip deutschland
linux systemadministrator system engineer,ip deutschland
it systemadministrator systembetreuer,ip deutschland
it system engineer,ip deutschland
techniker elektrotechnik it,ip deutschland
system engineer systemadministrator,ip deutschland
software engineer linux,ip deutschland
it support systemadministrator,ip deutschland
it security engineer,ip deutschland
it hardware techniker,ip deutschland
it netzwerk systemadministrator,ip deutschland
it service engineer,ip deutschland
it erp systemadministrator,ip deutschland
service techniker engineer,ip deutschland
systemadministrator linux mysql,ip deutschland
junior it systemadministrator,ip deutschland
it rollout techniker,ip deutschland
junior it techniker,ip deutschland
unix system engineer,ip deutschland
vorort techniker it,ip deutschland
it berater linux,ip deutschland
systemadministrator vmware linux,ip deutschland
it techniker helpdesk,ip deutschland
it techniker firmenwagen,ip deutschland
citrix it architect,ip deutschland
it pc techniker,ip deutschland
it mitarbeiter systemadministrator,ip deutschland
it support techniker,ip deutschland
techniker it rollouts,ip deutschland
it mitarbeiter citrix,ip deutschland
it systemadministrator fachinformatiker,ip deutschland
it onsite techniker,ip deutschland
systemadministrator schwerpunkt linux,ip deutschland
it systemadministrator drucker,ip deutschland
leiter it linux,ip deutschland
it techniker administrator,ip deutschland
it requirements engineer,ip deutschland
it systemadministrator teilzeit,ip deutschland
it support engineer,ip deutschland
it techniker notebook,ip deutschland
it systemadministrator softwareverteilung,ip deutschland
it techniker weltweit,ip deutschland
it techniker telekommunikation,ip deutschland
it tk systemadministrator,ip deutschland
it service techniker,ip deutschland
electronic engineer it,ip deutschland
it system engineer administrator,ip deutschland
unix linux aws cloud,ip deutschland
service techniker it tk,ip deutschland
junior it support engineer,ip deutschland
it junior service techniker,ip deutschland
it techniker onsite support,ip deutschland
it fach informatik techniker,ip deutschland
it techniker level support,ip deutschland
it support helpdesk systemadministrator,ip deutschland
systemintegration edv it techniker,ip deutschland
perl linux unix englisch,ip deutschland
it administrator linux cisco,ip deutschland
sap abap engineer it,ip deutschland
it system engineer windows,ip deutschland
it field service engineer,ip deutschland
fachinformatiker systemintegration linux unix,ip deutschland
it hardware techniker ausbildung,ip deutschland
staatlich geprüfter techniker it,ip deutschland
systemadministrator netzwerkadministrator administrator it,ip deutschland
it system engineer storage,ip deutschland
service techniker sicherheitstechnik anlagen,ip deutschland
junior linux system engineer,ip deutschland
it system techniker teilzeit,ip deutschland
it system engineer directory,ip deutschland
mitarbeiter daten it systemadministrator,ip deutschland
remote service engineer it,ip deutschland
it support engineer amazon,ip deutschland
it system engineer studium,ip deutschland
it service technician engineer,ip deutschland
cisco it system engineer,ip deutschland
junior it system engineer,ip deutschland
staatlich geprüfte techniker it,ip deutschland
it techniker first level,ip deutschland
it administrator schwerpunkt linux,ip deutschland
rf hardware,analog devices
rf engineer,analog devices
hardware entwicklung,analog devices
hardware engineer,analog devices
electrical engineer,analog devices
rf communications engineer,analog devices
rf systems engineer,analog devices
ingenieur hardware entwicklung,analog devices
protection electrical engineer,analog devices
rf electronic engineer,analog devices
system rf engineer,analog devices
hardware entwicklung elektrotechnik,analog devices
hardware design engineer,analog devices
plc electrical engineer,analog devices
electrical calculation engineer,analog devices
senior hardware engineer,analog devices
werkstudent hardware entwicklung,analog devices
electrical engineer automation,analog devices
r&d electrical engineer,analog devices
digital hardware engineer,analog devices
rf development engineer,analog devices
rf design engineer,analog devices
electrical test engineer,analog devices
english electrical engineer,analog devices
phd electrical engineer,analog devices
graduate electrical engineer,analog devices
electrical engineer thesis,analog devices
electrical design engineer,analog devices
hardware software engineer,analog devices
engineer mechanical electrical,analog devices
hardware test engineer,analog devices
dsp software engineer,analog devices
rf software engineer,analog devices
electrical project engineer,analog devices
rf verification engineer,analog devices
electrical engineer oil,analog devices
electrical power engineer,analog devices
dsp entwicklung c,analog devices
software engineer developer,analog devices
hardware software entwicklung,analog devices
wind electrical engineer,analog devices
r&d engineer hardware,analog devices
rf antenna engineer,analog devices
rf test engineer,analog devices
teamleiter hardware entwicklung,analog devices
hardware engineer automotive,analog devices
hardware development engineer,analog devices
electrical instrumentation engineer,analog devices
electrical drives engineer,analog devices
electrical testing engineer,analog devices
electrical engineer training,analog devices
junior hardware engineer,analog devices
electrical electronic engineer,analog devices
electrical engineer usa,analog devices
dsp engineer english,analog devices
rf application engineer,analog devices
electrical engineering developer,analog devices
rf analog ic design engineer,analog devices
high voltage electrical engineer,analog devices
ingenieur elektrotechnik hardware entwicklung,analog devices
electrical power commissioning engineer,analog devices
electrical power systems engineer,analog devices
audio hardware design engineer,analog devices
hochfrequenztechnik nachrichtentechnik hardware entwicklung,analog devices
project manager electrical engineer,analog devices
automotive electronics hardware engineer,analog devices
werkstudent embedded hardware entwicklung,analog devices
engineer hardware asic development,analog devices
digital hardware design engineer,analog devices
system engineer hardware display,analog devices
power electrical engineer data,analog devices
embedded hardware firmware engineer,analog devices
electronic hardware development engineer,analog devices
electrical engineer power electronics,analog devices
rf system integration engineer,analog devices
electrical engineer training program,analog devices
rf ic design engineer,analog devices
primary electrical design engineer,analog devices
ingenieur hardware software entwicklung,analog devices
electrical engineer english only,analog devices
senior hardware design engineer,analog devices
molecular biology cancer,information research
biochemistry molecular biology,information research
biochemistry molecular,information research
molecular biology,information research
scientist biochemistry molecular biology,information research
cell molecular biology research,information research
biochemistry molecular biology phd,information research
sales molecular biology,information research
postdoc molecular biology,information research
cell molecular biology,information research
molecular biology ggmbh,information research
biochemistry cell biology,information research
institute molecular biology,information research
molecular biology diagnostic,information research
researcher biology germany,information research
rna molecular biology,information research
molecular biology biotechnology,information research
postdoc cell molecular biology,information research
phd position molecular biology,information research
molecular biology phd english,information research
postdoctoral molecular cell biology,information research
phd biology stem cells,information research
postdoctoral position molecular biology,information research
phd molecular cell biology,information research
scientific software developer,thermo scientific
software engineer developer,thermo scientific
software ingenieur,thermo scientific
software techniker,thermo scientific
software developer,thermo scientific
software engineer,thermo scientific
software developer frameworks,thermo scientific
junior software developer,thermo scientific
junior software engineer,thermo scientific
part software developer,thermo scientific
software engineer bmw,thermo scientific
software engineer siemens,thermo scientific
software engineer medical,thermo scientific
automotive software engineer,thermo scientific
software engineer spacecraft,thermo scientific
advanced software developer,thermo scientific
microsoft software developer,thermo scientific
msr techniker ingenieur,thermo scientific
software engineer gis,thermo scientific
senior software developer,thermo scientific
software engineer fem,thermo scientific
techniker software mikrocontroller,thermo scientific
software engineer algorithms,thermo scientific
ingenieur techniker tga,thermo scientific
software engineer autosar,thermo scientific
graduate software developer,thermo scientific
technical product developer,thermo scientific
software quality engineer,thermo scientific
technical support engineer,thermo scientific
ingenieur techniker photovoltaik,thermo scientific
software design engineer,thermo scientific
software ingenieur französisch,thermo scientific
software engineer lead,thermo scientific
technical sales engineer,thermo scientific
informatiker ingenieur software,thermo scientific
sap software engineer,thermo scientific
php software developer,thermo scientific
techniker ingenieur holztechnik,thermo scientific
ingenieur techniker gebäudetechnik,thermo scientific
software test engineer,thermo scientific
technical field engineer,thermo scientific
techniker ingenieur umweltschutz,thermo scientific
software ingenieur net,thermo scientific
techniker ingenieur verfahrenstechnik,thermo scientific
music software developer,thermo scientific
software validation engineer,thermo scientific
techniker holz ingenieur,thermo scientific
python software engineer,thermo scientific
software engineer linux,thermo scientific
graduate software engineer,thermo scientific
phd software engineer,thermo scientific
title software developer,thermo scientific
php software engineer,thermo scientific
software ingenieur testautomatisierung,thermo scientific
rf software engineer,thermo scientific
software developer finance,thermo scientific
software developer germany,thermo scientific
microcontroller software engineer,thermo scientific
techniker ingenieur schaltungstechnik,thermo scientific
techniker elektrotechnik software,thermo scientific
r&d software engineer,thermo scientific
lte software engineer,thermo scientific
software developer amazon,thermo scientific
remote software developer,thermo scientific
software developer net,thermo scientific
senior software engineer,thermo scientific
ingenieur techniker dmu,thermo scientific
technical service engineer,thermo scientific
software entwickler developer,thermo scientific
ingenieur techniker planungsbüro,thermo scientific
software ingenieur sps,thermo scientific
service techniker engineer,thermo scientific
software engineer kundenprojekte,thermo scientific
software developer ruby,thermo scientific
techniker ingenieur ingenieurbüro,thermo scientific
ingenieur techniker technologie,thermo scientific
software engineer english,thermo scientific
hardware software engineer,thermo scientific
software ingenieur regelungstechnik,thermo scientific
software engineer intern,thermo scientific
software ingenieur bahntechnik,thermo scientific
part software engineer,thermo scientific
java software engineer,thermo scientific
software developer ios,thermo scientific
technical software manager,thermo scientific
software engineer robotics,thermo scientific
student software developer,thermo scientific
software engineer intel,thermo scientific
techniker ingenieur leittechnik,thermo scientific
software developer medical,thermo scientific
audio software engineer,thermo scientific
software developer infotainment,thermo scientific
software engineer android,thermo scientific
techniker ingenieur meister automatisierungstechnik,thermo scientific
software test engineer automotive,thermo scientific
software engineer english speaking,thermo scientific
ingenieur techniker fachrichtung feinwerktechnik,thermo scientific
field technical engineer manager,thermo scientific
junior software developer english,thermo scientific
techniker ingenieur elektro automatisierungstechnik,thermo scientific
java software engineer scala,thermo scientific
lead software engineer test,thermo scientific
embedded software development engineer,thermo scientific
android embedded software engineer,thermo scientific
junior software developer ios,thermo scientific
techniker ingenieur elektrik elektronik,thermo scientific
windows phone software developer,thermo scientific
software engineer quality automotive,thermo scientific
test engineer qa software,thermo scientific
ingenieur elektrotechnik techniker messtechnik,thermo scientific
techniker ingenieur master bachelor,thermo scientific
embedded software engineer c,thermo scientific
sps software ingenieur c,thermo scientific
senior lead software developer,thermo scientific
junior software developer part,thermo scientific
ingenieur techniker fachrichtung mechatronik,thermo scientific
junior software test engineer,thermo scientific
software developer java bi,thermo scientific
software developer embedded systems,thermo scientific
senior software engineer python,thermo scientific
software ingenieur plc sps,thermo scientific
software engineer c title,thermo scientific
test ingenieur embedded software,thermo scientific
techniker ingenieur maschinenbau mechatronik,thermo scientific
techniker ingenieur mechanische konstruktion,thermo scientific
ingenieur techniker erneuerbare energien,thermo scientific
maschinenbau konstrukteur ingenieur techniker,thermo scientific
technical account manager software,thermo scientific
parallel programming software developer,thermo scientific
meister techniker ingenieur fertigungstechnik,thermo scientific
software developer english java,thermo scientific
software engineer security clearance,thermo scientific
php senior software developer,thermo scientific
title senior software developer,thermo scientific
ingenieur techniker versorgungstechnik heizung,thermo scientific
software engineer computer vision,thermo scientific
software developer java jee,thermo scientific
software test engineer testautomatisierung,thermo scientific
software engineer data physik,thermo scientific
software test engineer intern,thermo scientific
ingenieur embedded software elektro,thermo scientific
technical acceptance test engineer,thermo scientific
automotive embedded software engineer,thermo scientific
techniker meister ingenieur versorgungstechnik,thermo scientific
embedded security software developer,thermo scientific
junior embedded software engineer,thermo scientific
embedded software engineer graduate,thermo scientific
embedded software integration engineer,thermo scientific
service technical support engineer,thermo scientific
support software developer junior,thermo scientific
junior software engineer java,thermo scientific
informatiker wirtschaftsinformatiker software engineer,thermo scientific
senior software developer azure,thermo scientific
ingenieur elektro software automatisierung,thermo scientific
software developer business intelligence,thermo scientific
ingenieur techniker elektrotechnik mess,thermo scientific
embedded software microcontroller engineer,thermo scientific
software developer app development,thermo scientific
software engineer entry level,thermo scientific
techniker ingenieur mechatronik automatisierungstechnik,thermo scientific
ingenieur hardware software entwicklung,thermo scientific
embedded software application engineer,thermo scientific
software entwickler net developer,thermo scientific
chemie pharma,scientific officer
consulting chemie pharma,scientific officer
chemie pharma analytik,scientific officer
medical advisor pharma,scientific officer
pharma biotech chemie,scientific officer
chemie pharma praktikum,scientific officer
medical director pharma,scientific officer
medical manager pharma,scientific officer
pharma international medical advisor,scientific officer
mitarbeiter arzneimittel chemie pharma,scientific officer
medical marketing manager pharma,scientific officer
medical liaison manager pharma,scientific officer
technician it,microsoft access
engineer technician,microsoft access
sql database,microsoft access
database engineer,microsoft access
anwendungsentwickler sql,microsoft access
sql vba,microsoft access
data engineer,microsoft access
vba datenbank,microsoft access
vba excel access sql,microsoft access
it service technician engineer,microsoft access
access vba sql vb,microsoft access
english it technician,microsoft access
vba sql english,microsoft access
sql database developer,microsoft access
it security engineer,microsoft access
it service engineer,microsoft access
data science vba,microsoft access
it requirements engineer,microsoft access
head database sql,microsoft access
it data manager,microsoft access
data analysis sql,microsoft access
entwickler datenbank sql,microsoft access
junior data engineer,microsoft access
it support engineer,microsoft access
it field technician,microsoft access
sql database administrator,microsoft access
data mining engineer,microsoft access
sql server datenbank,microsoft access
student vba sql,microsoft access
werkstudent vba datenbank,microsoft access
electronic engineer it,microsoft access
it support technician,microsoft access
sql data analyst,microsoft access
big data engineer,microsoft access
sql database analyst,microsoft access
it system engineer,microsoft access
it system engineer windows,microsoft access
it system engineer storage,microsoft access
sql pl data analyst,microsoft access
sql python excel vba,microsoft access
data analyst it english,microsoft access
cisco it system engineer,microsoft access
vba sql business intelligence,microsoft access
it system engineer administrator,microsoft access
it field service engineer,microsoft access
ms sql datenbank administrator,microsoft access
it system engineer directory,microsoft access
application engineer data analytics,microsoft access
it support engineer amazon,microsoft access
excel vba sql mathematik,microsoft access
power electrical engineer data,microsoft access
junior it support engineer,microsoft access
software engineer data physik,microsoft access
sql server database administrator,microsoft access
it anwendungsentwickler programmierung java,microsoft access
sql server datenbank consultant,microsoft access
it system engineer studium,microsoft access
junior it system engineer,microsoft access
medical science liaison,scientific liaison
clinical science,scientific liaison
medical science,scientific liaison
medical science manager oncology,scientific liaison
medical science liaison manager,scientific liaison
medical science manager,scientific liaison
medical science immunology,scientific liaison
oncology medical affairs,scientific liaison
medical science advisor,scientific liaison
clinical research oncology,scientific liaison
clinical research medical devices,scientific liaison
clinical operations manager oncology,scientific liaison
clinical project manager oncology,scientific liaison
clinical research associate oncology,scientific liaison
entwickler oracle datenbanken,oracle soa suite
it perl entwickler,oracle soa suite
it edi entwickler,oracle soa suite
sql oracle entwickler,oracle soa suite
oracle apex entwickler,oracle soa suite
oracle datenbank entwickler,oracle soa suite
java oracle entwickler,oracle soa suite
it entwickler praktikum,oracle soa suite
oracle soa developer,oracle soa suite
pl sql entwickler oracle,oracle soa suite
software entwickler net,vb net
programmierer anwendungsentwickler softwareentwickler,vb net
softwareentwickler anwendungsentwicklung,vb net
sharepoint softwareentwickler,vb net
programmierer entwickler,vb net
automation engineer,vb net
sharepoint entwickler,vb net
software anwendungsentwickler,vb net
software entwickler,vb net
softwareentwickler automation,vb net
sharepoint anwendungsentwicklung,vb net
software automation,vb net
fachinformatiker anwendungsentwicklung anwendungsentwickler entwickler softwareentwickler,vb net
softwareentwickler software developer programmierer anwendungsentwickler,vb net
software entwickler net developer,vb net
linux programmierer softwareentwickler entwickler,vb net
software engineer intel,vb net
software entwickler perl,vb net
software engineer spacecraft,vb net
software entwickler delphi,vb net
software engineer lead,vb net
software entwickler webbasierte,vb net
software entwickler steuerungstechnik,vb net
software engineer gis,vb net
client software entwickler,vb net
softwareentwickler java entwickler,vb net
technical field engineer,vb net
software entwickler medizintechnik,vb net
software entwickler aerospace,vb net
software entwickler browser,vb net
software entwickler remote,vb net
software entwickler automobil,vb net
software entwickler javascript,vb net
software engineer kundenprojekte,vb net
software entwickler warenwirtschaft,vb net
r&d software engineer,vb net
software engineer fem,vb net
automation engineer plc,vb net
software entwickler microcontroller,vb net
software entwickler bussysteme,vb net
anwendungsentwickler erp software,vb net
softwareentwickler php entwickler,vb net
sap software entwickler,vb net
software entwickler regelungstechnik,vb net
embedded software entwickler,vb net
software entwickler ethernet,vb net
software entwickler messtechnik,vb net
programmierer entwickler java,vb net
software engineer english,vb net
software entwickler matlab,vb net
software entwickler pascal,vb net
software entwickler developer,vb net
mes software entwickler,vb net
software quality engineer,vb net
software entwickler leistungselektronik,vb net
software engineer siemens,vb net
senior sharepoint entwickler,vb net
software engineer intern,vb net
electrical engineer automation,vb net
python software engineer,vb net
technical sales engineer,vb net
software engineer robotics,vb net
trainee software entwickler,vb net
softwareentwickler embedded software,vb net
sharepoint technical consultant,vb net
software entwickler treiber,vb net
microcontroller software engineer,vb net
software entwickler dsp,vb net
junior software entwickler,vb net
software entwickler tools,vb net
software entwickler grafik,vb net
control automation engineer,vb net
software entwickler mikrocontroller,vb net
java software engineer,vb net
software entwickler wpf,vb net
test automation engineer,vb net
technical service engineer,vb net
software entwickler autosar,vb net
php software engineer,vb net
software engineer bmw,vb net
software engineer autosar,vb net
lte software engineer,vb net
robotics automation engineer,vb net
werkstudent software entwickler,vb net
logistik software entwickler,vb net
graduate software engineer,vb net
junior automation engineer,vb net
web entwickler software,vb net
phd software engineer,vb net
software entwickler android,vb net
software entwickler vhdl,vb net
programmierer fachinformatiker anwendungsentwicklung,vb net
senior software engineer,vb net
software entwickler security,vb net
audio software engineer,vb net
technical support engineer,vb net
automotive software engineer,vb net
software architekt sharepoint,vb net
programmierer anwendungsentwickler php,vb net
qa automation engineer,vb net
junior software engineer,vb net
software test engineer,vb net
cnc software entwickler,vb net
part software engineer,vb net
infotainment software entwickler,vb net
software test automation,vb net
junior sharepoint entwickler,vb net
software entwickler teilzeit,vb net
siemens software entwickler,vb net
net software entwickler home office,vb net
software entwickler gui entwicklung,vb net
junior software test engineer,vb net
test engineer qa software,vb net
software entwickler vollzeit teilzeit,vb net
software engineer entry level,vb net
fachinformatiker softwareentwickler programmierer it,vb net
software entwickler home office,vb net
plc automation controls engineer,vb net
software entwickler java wicket,vb net
software entwickler c php,vb net
software test engineer intern,vb net
web webentwickler softwareentwickler programmierer,vb net
junior embedded software engineer,vb net
embedded software integration engineer,vb net
informatiker wirtschaftsinformatiker software engineer,vb net
software entwickler hmi gui,vb net
java software engineer scala,vb net
embedded software development engineer,vb net
embedded software engineer graduate,vb net
software entwickler java swing,vb net
software entwickler user interface,vb net
backend entwickler php programmierer,vb net
service technical support engineer,vb net
softwareentwickler programmierer informatik informatiker,vb net
senior embedded software entwickler,vb net
lead software engineer test,vb net
software entwickler mikrocontroller programmierung,vb net
automotive embedded software engineer,vb net
senior software engineer python,vb net
junior software entwickler embedded,vb net
software entwickler cad cam,vb net
software entwickler java eclipse,vb net
software entwickler java inhouse,vb net
software engineer english speaking,vb net
software test engineer automotive,vb net
software entwickler promotion informatik,vb net
junior software engineer java,vb net
software entwickler virtual reality,vb net
php programmierer web entwickler,vb net
technical acceptance test engineer,vb net
electronic design automation engineer,vb net
android embedded software engineer,vb net
software engineer quality automotive,vb net
embedded software microcontroller engineer,vb net
software engineer security clearance,vb net
technical account manager software,vb net
field technical engineer manager,vb net
software entwickler matlab simulink,vb net
software test engineer testautomatisierung,vb net
software engineer c title,vb net
data scientist engineering,business process optimization
data mining engineer,business process optimization
clinical data management,business process optimization
chemical engineering engineer,business process optimization
junior data engineer,business process optimization
data science engineering,business process optimization
clinical data quality,business process optimization
clinical data manager,business process optimization
big data lab,business process optimization
clinical data manager home,business process optimization
technical project manager engineering,business process optimization
application engineer data analytics,business process optimization
associate clinical data manager,business process optimization
pharma clinical data manager,business process optimization
technical account manager technology,business process optimization
clinical data manager management,business process optimization
software engineering data physik,business process optimization
data scientist engineering,supply chain optimization
chemical engineering engineer,supply chain optimization
data science engineering,supply chain optimization
software engineering data physik,supply chain optimization
technical account manager it,technical due diligence
software entwicklung programmierung automobil,siemens corporate technology
data analysis biology,siemens corporate technology
simulation software entwicklung,siemens corporate technology
junior data analysis,siemens corporate technology
algorithms software engineering,siemens corporate technology
trainee data analysis,siemens corporate technology
abteilungsleiter software entwicklung,siemens corporate technology
gruppenleiter software entwicklung,siemens corporate technology
data analysis sql,siemens corporate technology
teamleiter software entwicklung,siemens corporate technology
abschlussarbeit software engineering,siemens corporate technology
werkstudent software entwicklung,siemens corporate technology
head data analysis,siemens corporate technology
big data analysis,siemens corporate technology
programmierung elektrische antriebe,siemens corporate technology
masterarbeit software entwicklung,siemens corporate technology
software architektur entwicklung,siemens corporate technology
data analysis intern,siemens corporate technology
data analysis english,siemens corporate technology
data analysis matlab,siemens corporate technology
software entwicklung automobilindustrie,siemens corporate technology
cad design engineer,siemens corporate technology
cad cam software,siemens corporate technology
data analysis model,siemens corporate technology
internship data analysis,siemens corporate technology
embedded software engineering,siemens corporate technology
data analysis spss,siemens corporate technology
cad cam engineer,siemens corporate technology
software entwicklung bildverarbeitung,siemens corporate technology
thermal analysis engineer,siemens corporate technology
data analysis hadoop,siemens corporate technology
leiter it entwicklung,siemens corporate technology
hardware software entwicklung,siemens corporate technology
bereichsleiter software entwicklung,siemens corporate technology
phd data analysis,siemens corporate technology
cad cam programmierung,siemens corporate technology
leiter software entwicklung,siemens corporate technology
stein software entwicklung,siemens corporate technology
hardwarenahe software entwicklung,siemens corporate technology
r data analysis,siemens corporate technology
software engineering prozessautomatisierung,siemens corporate technology
verkäufer it software,siemens corporate technology
software entwicklung net,siemens corporate technology
trainee software entwicklung,siemens corporate technology
python data analysis,siemens corporate technology
it data manager,siemens corporate technology
software entwicklung verfahrenstechnik,siemens corporate technology
software bmw it,siemens corporate technology
data analysis automotive,siemens corporate technology
data analysis manager,siemens corporate technology
stress analysis engineer,siemens corporate technology
cad software vertrieb,siemens corporate technology
software entwicklung senioren,siemens corporate technology
abschlussarbeit software entwicklung,siemens corporate technology
data analysis statistical,siemens corporate technology
elektroniker entwicklung software,siemens corporate technology
werkstudent software engineering,siemens corporate technology
praktikum software entwicklung,siemens corporate technology
basis software entwicklung,siemens corporate technology
software engineering praktikum,siemens corporate technology
software entwicklung development it fachinformatiker,siemens corporate technology
software entwickler gui entwicklung,siemens corporate technology
praktikum pc software entwicklung,siemens corporate technology
software entwickler cad cam,siemens corporate technology
chief technology officer it,siemens corporate technology
projektleiter it edv software,siemens corporate technology
it anwendungsentwickler programmierung java,siemens corporate technology
it web edv programmierung,siemens corporate technology
cad konstrukteur pro engineer,siemens corporate technology
algorithms software engineering support,siemens corporate technology
entwicklung cad ingenieur projekt,siemens corporate technology
teamleiter embedded software entwicklung,siemens corporate technology
abschlussarbeit embedded software entwicklung,siemens corporate technology
software entwicklung projektmanager tests,siemens corporate technology
cad zeichner pro engineer,siemens corporate technology
werkstudent it informatik entwicklung,siemens corporate technology
data analyst it english,siemens corporate technology
einkäufer it software hardware,siemens corporate technology
intern english data analysis,siemens corporate technology
studium duales software engineering,siemens corporate technology
mathematik software entwicklung promotion,siemens corporate technology
software entwickler mikrocontroller programmierung,siemens corporate technology
it mitarbeiter software paketierung,siemens corporate technology
freelancer software entwicklung java,siemens corporate technology
praktikum entwicklung elektrische antriebe,siemens corporate technology
working student data analysis,siemens corporate technology
software cad cam cae,siemens corporate technology
python big data analysis,siemens corporate technology
scientific software developer,fisher scientific
software developer,fisher scientific
software ingenieur,fisher scientific
software techniker,fisher scientific
software developer ruby,fisher scientific
php software developer,fisher scientific
techniker ingenieur umweltschutz,fisher scientific
software developer net,fisher scientific
junior software developer,fisher scientific
msr techniker ingenieur,fisher scientific
ingenieur techniker technologie,fisher scientific
techniker ingenieur schaltungstechnik,fisher scientific
microsoft software developer,fisher scientific
software ingenieur sps,fisher scientific
software ingenieur bahntechnik,fisher scientific
software ingenieur net,fisher scientific
remote software developer,fisher scientific
techniker ingenieur holztechnik,fisher scientific
ingenieur techniker photovoltaik,fisher scientific
techniker ingenieur leittechnik,fisher scientific
ingenieur techniker gebäudetechnik,fisher scientific
ingenieur techniker planungsbüro,fisher scientific
software ingenieur regelungstechnik,fisher scientific
senior software developer,fisher scientific
graduate software developer,fisher scientific
part software developer,fisher scientific
software developer frameworks,fisher scientific
technical product developer,fisher scientific
software developer germany,fisher scientific
software developer finance,fisher scientific
techniker ingenieur verfahrenstechnik,fisher scientific
software developer ios,fisher scientific
techniker elektrotechnik software,fisher scientific
informatiker ingenieur software,fisher scientific
techniker holz ingenieur,fisher scientific
techniker ingenieur ingenieurbüro,fisher scientific
music software developer,fisher scientific
ingenieur techniker dmu,fisher scientific
title software developer,fisher scientific
techniker meister ingenieur versorgungstechnik,fisher scientific
software ingenieur plc sps,fisher scientific
junior software developer part,fisher scientific
techniker ingenieur elektrik elektronik,fisher scientific
techniker ingenieur master bachelor,fisher scientific
software developer business intelligence,fisher scientific
senior lead software developer,fisher scientific
support software developer junior,fisher scientific
ingenieur techniker elektrotechnik mess,fisher scientific
techniker ingenieur meister automatisierungstechnik,fisher scientific
software developer java jee,fisher scientific
embedded security software developer,fisher scientific
sps software ingenieur c,fisher scientific
techniker ingenieur mechatronik automatisierungstechnik,fisher scientific
ingenieur techniker erneuerbare energien,fisher scientific
software developer java bi,fisher scientific
php senior software developer,fisher scientific
ingenieur elektro software automatisierung,fisher scientific
techniker ingenieur mechanische konstruktion,fisher scientific
windows phone software developer,fisher scientific
junior software developer ios,fisher scientific
test ingenieur embedded software,fisher scientific
techniker ingenieur maschinenbau mechatronik,fisher scientific
software developer app development,fisher scientific
ingenieur embedded software elektro,fisher scientific
ingenieur elektrotechnik techniker messtechnik,fisher scientific
maschinenbau konstrukteur ingenieur techniker,fisher scientific
linux systemadministrator system engineer,computer system administrator
it administrator linux cisco,computer system administrator
junior linux system engineer,computer system administrator
it administrator schwerpunkt linux,computer system administrator
it sap user administrator,computer system administrator
system engineer sap basis,computer system administrator
sap administrator it support,computer system administrator
sap data conversion,computer system administrator
sap hr it,computer system administrator
sap it audit,computer system administrator
sap it support,computer system administrator
software c linux,computer system administrator
quereinsteiger it sap,computer system administrator
it security sap,computer system administrator
leiter it linux,computer system administrator
sap data migration,computer system administrator
werkstudent sap it,computer system administrator
leiter sap it,computer system administrator
it architekt sap,computer system administrator
it manager sap,computer system administrator
sap data services,computer system administrator
sap data mining,computer system administrator
sap it architect,computer system administrator
sap data scientist,computer system administrator
linux it systemadministrator,computer system administrator
it sachbearbeiter sap,computer system administrator
sap data science,computer system administrator
it anwendungsbetreuer sap,computer system administrator
it sap teamleiter,computer system administrator
sap it spanien,computer system administrator
it leitung sap,computer system administrator
sap it consultant,computer system administrator
it berater linux,computer system administrator
sap data analyst,computer system administrator
it mitarbeiter sap,computer system administrator
verkäufer it software,computer system administrator
software bmw it,computer system administrator
sap software entwickler,computer system administrator
sap big data,computer system administrator
sap master data management,computer system administrator
it sap pdm plm,computer system administrator
it mitarbeiter software paketierung,computer system administrator
senior sap it architekt,computer system administrator
sap it sd edi,computer system administrator
einkäufer it software hardware,computer system administrator
projektleiter it edv software,computer system administrator
sap berechtigung informatik it,computer system administrator
sap it solution architect,computer system administrator
sap senior it berater,computer system administrator
sap it projekt manager,computer system administrator
sap hcm it manager,computer system administrator
it projektleiter sap hana,computer system administrator
english is it sap,computer system administrator
business analyst sap it,computer system administrator
thyssenkrupp it services sap,computer system administrator
deutsche post it sap,computer system administrator
software architekt embedded linux,computer system administrator
software entwicklungsingenieur embedded linux,computer system administrator
sap data migration consultant,computer system administrator
fachinformatiker systemintegration linux unix,computer system administrator
it support mitarbeiter sap,computer system administrator
it spezialist sap basis,computer system administrator
sap it operations specialist,computer system administrator
sap master data consultant,computer system administrator
sap consultant big data,computer system administrator
sap hr it spezialisten,computer system administrator
perl linux unix englisch,computer system administrator
sap hcm hr it,computer system administrator
sap hr it spezialist,computer system administrator
english it technician,contract administrator
it field technician,contract administrator
junior it systemadministrator,itil problem management
citrix it architect,itil problem management
it tk systemadministrator,itil problem management
it systemadministrator systembetreuer,itil problem management
it systemadministrator teilzeit,itil problem management
it projektleiter sharepoint,itil problem management
automation engineer plc,itil problem management
robotics automation engineer,itil problem management
junior automation engineer,itil problem management
test automation engineer,itil problem management
it administrator sharepoint,itil problem management
it systemadministrator drucker,itil problem management
system engineer systemadministrator,itil problem management
qa automation engineer,itil problem management
praktikum it sharepoint,itil problem management
control automation engineer,itil problem management
it systemadministrator fachinformatiker,itil problem management
systemadministrator vmware linux,itil problem management
it support systemadministrator,itil problem management
it netzwerk systemadministrator,itil problem management
it mitarbeiter citrix,itil problem management
it erp systemadministrator,itil problem management
it itil service management projekt,itil problem management
leiter it itil prince2,itil problem management
it microsoft sharepoint administrator,itil problem management
plc automation controls engineer,itil problem management
systemadministrator it administrator techniker,itil problem management
it operations manager itil,itil problem management
systemadministrator netzwerkadministrator administrator it,itil problem management
it process manager itil,itil problem management
electronic design automation engineer,itil problem management
it support helpdesk systemadministrator,itil problem management
senior it consultant itil,itil problem management
it systemadministrator,helpdesk administrator
systemadministrator administrator systemmanager system it,helpdesk administrator
physics engineer,scientific publishing
field application engineer physics,scientific publishing
data scientist developer,web analytics manager
