abab,0
abgassysteme,0
abiotic,0
abwasseraufbereitung,0
acid,0
acoustic,0
acryl,0
actuators,0
acute,0
adhesion,0
adipositas,0
aerosols,0
aggregation,0
agrartechnischer,0
agrarwissenschaftler,0
agricultural,0
agrochemicals,0
agrochemikalien,0
aktorik,0
albicans,0
algorithmenentwickler,0
algorithmic,0
algorithms,0
allergie,0
allergiediagnostik,0
allergologie,0
allergopharma,0
allogene,0
alzheimer,0
amwhv,0
analysegeräte,0
analyseinstrumente,0
analyselabor,0
analysemethoden,0
analysenmethoden,0
analyseplattform,0
analysesysteme,0
analysetechnik,0
anesthesia,0
aneuploidy,0
angular,0
anlagenautomatisierung,0
anlagenbetriebstechnik,0
anlagendokumentation,0
anlagenoptimierung,0
anorganik,0
anorganische,0
ansteuerelektronik,0
antibiotics,0
antibiotika,0
antibiotikaresistenz,0
antibodies,0
antigen,0
antikörper,0
antimicrobial,0
antriebsarten,0
antriebselektronik,0
antriebsregelung,0
antriebssysteme,0
anwendungssoftware,0
anwendungsspezialist,0
anwendungssysteme,0
anwendungstechnik,0
anwendungstechnische,0
api,0
apoptose,0
apotheken,0
apothekenaußendienst,0
apparatetechnik,0
applikationslabor,0
applikationsspezialisten,0
applikative,0
aquakultur,0
arabidopsis,0
aromen,0
arzneiformen,0
arzneimittelanalytik,0
arzneimittelentwicklung,0
arzneimittelherstellung,0
arzneimittelproduktion,0
arzneimittelqualität,0
arzneistoffen,0
asp.net,0
assembler,0
assistenzärztin,0
atemwege,0
atemwegserkrankungen,0
atmospheric,0
atmp,0
atomabsorptionsspektrometrie,0
auditsysteme,0
aufbautechnik,0
aufreinigung,0
auftragsanalytik,0
auftragslabor,0
augenoptik,0
autoabgaskatalysatoren,0
autoantikörper,0
autoimmun,0
autoimmundiagnostik,0
autoimmunerkrankungen,0
autoimmunity,0
automationsspezialist,0
automatisierte,0
automatisierungsanlagen,0
automatisierungsingenieur,0
automatisierungsingenieurin,0
automatisierungssysteme,0
automatisierungstechniker,0
automatisierungstechnikerin,0
automobilelektronik,0
avioniksysteme,0
bacteria,0
bacterial,0
bakterielle,0
bakterien,0
bakteriologie,0
bakteriologische,0
batteriesysteme,0
batterietechnik,0
baucontrolling,0
bauingenieure,0
bauingenieurswesen,0
bautechnische,0
bedienelemente,0
beelen,0
begleitforschung,0
beleuchtungstechnik,0
berechnungsingenieure,0
berechnungssoftware,0
berechtigungsmanagement,0
berufsdermatologie,0
beschichtungsprozesse,0
beschichtungstechnologie,0
betriebselektrik,0
betriebslabor,0
betriebstechnik,0
betriebsärzte,0
biacore,0
bildgebende,0
bildgestützte,0
bioanalytics,0
bioanalytische,0
bioanalytischer,0
bioassay,0
bioassays,0
biobricks,0
biochemical,0
biochemicals,0
biochemische,0
biochemisches,0
biochemist,0
biocides,0
bioeconomy,0
biofilms,0
biogeochemie,0
bioinformatic,0
bioinformatician,0
bioinformatischen,0
bioingenieur,0
biokatalyse,0
biokompatibilität,0
biol,0
biologen,0
biologicals,0
biologielaborantin,0
biologielaborantinnen,0
biologin,0
biologists,0
biomaterials,0
biomechanics,0
biomedicine,0
biomedizintechnik,0
biopharmaceuticals,0
biopharmazeutika,0
biopharmazeutische,0
biopharmazie,0
biophysical,0
biophysikalische,0
biophysiker,0
biopolymere,0
bioprozesstechnik,0
bioprozesstechnologie,0
biopsy,0
bioreaktor,0
bioreaktoren,0
biosafety,0
biosampling,0
biosciences,0
biosensors,0
biostatistik,0
biostatistiker,0
biosynthesis,0
biota,0
biotechnik,0
biotechnologist,0
bioverfahrenstechniker,0
biowissenschaftler,0
bioökonomie,0
bite,0
blood,0
blutgerinnung,0
blutgruppenserologie,0
bordnetze,0
brautechnologie,0
bussysteme,0
calypso,0
cas9,0
cascade,0
cax,0
cells,0
cerevisiae,0
cgmp,0
characterisation,0
characterization,0
chemiefachkraft,0
chemieingenieurswesen,0
chemiekonzern,0
chemielaboranten,0
chemielaborantin,0
chemietechnik,0
chemikalienrecht,0
chemikaliensicherheit,0
chemikanten,0
chemikantin,0
chemikerin,0
chemists,0
chromatin,0
chromeleon,0
circuit,0
cloning,0
code,0
coherence,0
coli,0
composer,0
computation,0
computational,0
computerized,0
computervalidierung,0
condensed,0
crosstalk,0
cytoskeleton,0
dampfturbinen,0
datenbankanwendungen,0
datenbanken,0
datenmodellierung,0
degenerativer,0
delphi,0
dendritic,0
derived,0
detection,0
deviation,0
diabetesforschung,0
diabetic,0
diagnosesysteme,0
diagnostic,0
diagnostika,0
diagnostiklabor,0
diagnostische,0
dialysebereich,0
differentiation,0
diodenlaser,0
do,0
dokumentationssoftware,0
druckbehälter,0
durchflusszytometrische,0
eagle,0
einbruchmeldetechnik,0
electronical,0
electrophoresis,0
elektrochemische,0
elektroinstallationen,0
elektromagnetische,0
elektromechanische,0
elektromotor,0
elektronenmikroskopische,0
elektronikentwickler,0
elektrophorese,0
elektrotechnikerin,0
elektrotechnische,0
embryonic,0
embryos,0
endothelial,0
energieanlagenelektriker,0
energieforschung,0
energiespeichersysteme,0
energiesysteme,0
energiesystemtechnik,0
entsorgungstechnik,0
entwicklungsbiologie,0
entwicklungsingenieure,0
entwicklungslabor,0
entzündung,0
enzymatischen,0
enzyme,0
enzymen,0
enzymes,0
enzymology,0
epidemiologe,0
epigenetik,0
epigenetische,0
epitaxie,0
epitaxy,0
esr,0
etcs,0
evasion,0
excipients,0
experiment,0
experimentalphysik,0
experimentelle,0
experiments,0
extracellular,0
exzellenzcluster,0
facharztaußendienst,0
fachtierarzt,0
fachärztin,0
fahrwerkstechnik,0
fahrwerksysteme,0
fahrzeugtechniker,0
feinchemikalien,0
feinmechanik,0
feinwerktechniker,0
fertigarzneimittel,0
fertigungstechniker,0
filterpressen,0
fir,0
flugmechanik,0
fluorescence,0
fluorescent,0
formulierungsentwicklung,0
forschungs,0
forschungsbereich,0
forschungslabor,0
forschungslabors,0
forschungsprojekt,0
forschungsprojekte,0
forschungsprojekten,0
forschungsstrategie,0
forschungsvorhaben,0
forschungszwecke,0
fpgas,0
frauenheilkunde,0
frontend,0
fräsmaschinen,0
fungal,0
fungi,0
funktechnik,0
funktionsentwicklung,0
funktionsintegration,0
galenische,0
galvanische,0
gasturbinen,0
gclp,0
gebäudesystemtechnik,0
generics,0
genes,0
genetische,0
genom,0
genome,0
genomic,0
genomik,0
gentherapie,0
geodesy,0
geoinformatiker,0
geometrische,0
geowissenschaftler,0
gerinnung,0
geräteentwicklung,0
glaukom,0
granulierung,0
grenzflächen,0
grundlagenforschung,0
gui,0
gynäkologe,0
gynäkologische,0
hautklinik,0
headunit,0
hematology,0
hematopoietic,0
hepatologie,0
herzklappen,0
hf,0
hightech,0
histone,0
histopathologie,0
hochvolt,0
holztechnik,0
homeostasis,0
humangenetische,0
humanmediziner,0
humanstudien,0
hygienetechnik,0
hämatologische,0
hämatoonkologie,0
hämophilie,0
hämostaseologie,0
identifizierung,0
immissionsschutz,0
immun,0
immunantwort,0
immunbiologie,0
immunchemie,0
immundiagnostik,0
immune,0
immunfluoreszenz,0
immunhistochemie,0
immunhistologie,0
immunhämatologie,0
immunoassay,0
immunoassays,0
immunologische,0
immuntherapie,0
immunzellen,0
impfstoff,0
impfstoffe,0
impfstoffen,0
impfstoffherstellung,0
indikationen,0
indikationsbereich,0
industrieautomation,0
industrieelektronik,0
industrieelektroniker,0
infections,0
infectious,0
infectives,0
infektionskrankheiten,0
infektionsserologie,0
inflammation,0
inflammatory,0
influenza,0
informatician,0
informationssystemtechnik,0
informationstechniker,0
ingenieure,0
ingenieurin,0
ingenieurinnen,0
ingenieurs,0
ingenieurswesen,0
ingenieurswissenschaft,0
ingenieurwissenschaft,0
ingenieurwissenschaftler,0
instrumentelle,0
insulin,0
internist,0
intracellular,0
intraokularlinsen,0
intravital,0
invasive,0
ios,0
ipsc,0
isotope,0
itsm,0
kardiovaskuläre,0
katalysatoren,0
kernel,0
kinderchirurgie,0
kinderorthopädie,0
kits,0
klebtechnik,0
klonierung,0
knochenmarktransplantation,0
kohlendioxid,0
komfortelektronik,0
kommunikationstechnologie,0
komplexitätsmanagement,0
konfigurationsmanagement,0
konstrukteure,0
kontaminanten,0
kontrolllabor,0
korrosionsschutzsystemen,0
kraftfahrzeugtechnik,0
krankenhauslabor,0
krebstherapie,0
kreislauferkrankungen,0
kultivierung,0
kunstharze,0
kunstofftechnik,0
kunststoffe,0
kunststoffverarbeitung,0
laboranten,0
laborassistenten,0
laborassistenz,0
laboratorien,0
laboratoriums,0
laboratoriumsassistent,0
laboratoriumsassistenten,0
laborautomatisierung,0
laborbedarf,0
laborbereich,0
laborchemikalien,0
labordaten,0
labore,0
laborgeräte,0
laborinformations,0
laborinformationssysteme,0
laboringenieurin,0
laborleiterin,0
laborleitung,0
labormanagement,0
labororganisation,0
laborsysteme,0
laborteams,0
labortechnik,0
laborverbrauchsmaterialien,0
lacklaboranten,0
lacktechnik,0
lasermesstechnik,0
lebenswissenschaften,0
leukemia,0
lichttechnik,0
lipid,0
loop,0
luftfahrtgeräte,0
luftfahrzeugtechnik,0
lymphomen,0
lyophilisation,0
magnetic,0
magnetische,0
magnetresonanztomographie,0
mammalian,0
maschinenbauer,0
maschinendynamik,0
maschinenwesen,0
massenspektrometer,0
materialwissenschaft,0
mathematical,0
mathematician,0
mathematics,0
mathematische,0
matrizen,0
mechanism,0
mechanistic,0
mechatronik,0
medikamentenentwicklung,0
mediziner,0
medizinerin,0
medizinphysik,0
medizinstudent,0
membranes,0
membranproteinen,0
messdatenmanagement,0
messgeräte,0
messmaschinen,0
messsysteme,0
messtechnische,0
metabolic,0
metabolismus,0
metallfolien,0
metastasis,0
methodenentwicklung,0
metrologie,0
microbe,0
microfluidic,0
microorganisms,0
mikrobielle,0
mikrobiologische,0
mikrocontroller,0
mikroorganismen,0
mikrosysteme,0
modellbasierte,0
molecule,0
molecules,0
molekularbiologe,0
molekularbiologische,0
molekulardiagnostik,0
molekulare,0
molekulargenetische,0
molekularpathologie,0
morphogenesis,0
morphology,0
mrna,0
mutation,0
mutationen,0
mykologie,0
nachwuchswissenschaftler,0
nanoelektronik,0
nanomaterialien,0
nanomaterials,0
nanoparticle,0
nanopartikel,0
nasschemische,0
naturstoffchemie,0
naturwiss,0
naturwissenschaftlerin,0
navigationssysteme,0
neural,0
neurodegeneration,0
neurodegenerative,0
neuroimmunologie,0
neuroimmunology,0
neuroinflammation,0
neuron,0
neuronal,0
neurophysiologie,0
neuropsychologe,0
neuropsychologie,0
neurowissenschaft,0
ngs,0
nucleic,0
nukleinsäuren,0
numerical,0
oberflächentechnik,0
ohrenheilkunde,0
oled,0
oligonukleotide,0
oligonukleotidsynthese,0
omnitrope,0
ontology,0
ophthalmochirurgie,0
optische,0
optoelektronische,0
organics,0
orthopäde,0
oxidative,0
packmittellabor,0
parenteralia,0
parkinson,0
particles,0
partikel,0
patente,0
patentingenieur,0
patentreferent,0
pathogenesis,0
pathogenic,0
pathological,0
pathophysiologie,0
pcr,0
peptiden,0
perinatalmedizin,0
pflanzenbiochemie,0
pharm,0
pharmaingenieur,0
pharmakologe,0
pharmakologische,0
pharmaproduktion,0
pharmatechniker,0
pharmazeutika,0
pharmazeutin,0
pharmaziepraktikanten,0
phenotypic,0
phenotyping,0
photonic,0
photonik,0
physicist,0
physicists,0
physikerin,0
phyta,0
phänotypisierung,0
pigments,0
pim,0
pipetten,0
plasma,0
plasticity,0
platinen,0
pneumococcal,0
polymere,0
postdocs,0
postdoktoranden,0
probeneingang,0
probenlogistik,0
probenmanagement,0
probenvorbereitung,0
produktanalytik,0
produktionsautomatisierung,0
produkttechnik,0
programmers,0
programmieren,0
programmierkenntnisse,0
programmierte,0
projektingenieure,0
proteinaufreinigung,0
proteinbiochemie,0
proteine,0
proteinen,0
proteinexpression,0
proteins,0
proteomic,0
proteostasis,0
prozessanalytik,0
prozessautomatisierung,0
prozessleitsysteme,0
prozesssteuerung,0
prozesstechnologie,0
prozessvalidierung,0
präanalytik,0
präklinische,0
präparative,0
prüfmittelentwicklung,0
psychiatric,0
pulmologie,0
pädiatrische,0
qualifizierungsingenieur,0
qualitätskontrolllabor,0
qualitätslabor,0
radar,0
radartechnik,0
radioaktivität,0
radiochemie,0
radiologieassistentin,0
radiologieassistentinnen,0
radiopharmaka,0
raman,0
raumlufttechnik,0
reactions,0
reagents,0
reagenzien,0
receptor,0
recombinant,0
referenzlabor,0
regelungstechniker,0
rehabilitationsmedizin,0
rehaklinik,0
rehatechniker,0
reinigungstechnologie,0
relationale,0
renal,0
replication,0
reprogramming,0
retinal,0
retrieval,0
rezeptor,0
rheuma,0
rheumatologische,0
richtfunk,0
rnai,0
rnas,0
robot,0
robots,0
rohrsystemtechnik,0
routinelabor,0
saccharomyces,0
sandstrahlen,0
sanitärtechnik,0
scattering,0
schaltanlagen,0
schaltberechtigung,0
schaltungsentwicklung,0
schaltungstechnik,0
schlafmedizin,0
schleiftechnologie,0
schmerz,0
schuhtechnik,0
schwingung,0
sclerosis,0
scripting,0
sekundärtechnik,0
sensing,0
sensorsystemtechnik,0
sequencing,0
sequenzierung,0
serologie,0
serviceingenieur,0
sicherungstechnik,0
signaling,0
signaltechnik,0
signaltransduktion,0
simulationen,0
simulations,0
situ,0
sklerose,0
soa,0
sofc,0
sofistik,0
softwarearchitekt,0
softwareentwicklung,0
softwareingenieur,0
softwarelösungen,0
softwaretechnik,0
softwaretechniker,0
softwaretest,0
softwaretests,0
softwareverteilung,0
solartechnik,0
sondermaschinen,0
sop,0
sops,0
spectrometry,0
spektrometrie,0
spektroskopische,0
spezialchemikalien,0
spezialdiagnostik,0
spleißen,0
spritzgussmaschinen,0
spurenanalytik,0
stabilitätsstudien,0
stammzell,0
stammzellforschung,0
statistical,0
statistische,0
sterilherstellung,0
sterilprodukte,0
steuerungsbau,0
steuerungssoftware,0
strangpressen,0
stress,0
strukturdynamik,0
strömungssimulation,0
supra,0
surface,0
synaptic,0
syndrome,0
synthetische,0
systemanalyse,0
systementwicklung,0
systemspezialist,0
tcr,0
technikerinnen,0
technologe,0
technologieentwicklung,0
technologist,0
terahertz,0
terrestrial,0
terrestrische,0
testengineer,0
testentwicklung,0
testsysteme,0
theoretische,0
therapies,0
throughput,0
tierarzt,0
tierexperimentelle,0
tiermediziner,0
tiermodell,0
tierversuchen,0
tolerance,0
tpn,0
tragwerksplanung,0
transceivers,0
transcriptional,0
transduction,0
transformatoren,0
transgenen,0
translationale,0
transplantation,0
triebwerke,0
tumorbiologie,0
tumoren,0
tumorimpfstoffe,0
turbinen,0
ubiquitin,0
umrichter,0
umweltingenieur,0
umwelttechniker,0
umweltwissenschaftler,0
unfallchirurgie,0
universitätsmedizin,0
unternehmensgruppe,0
usp,0
vaccines,0
vacuum,0
vaskuläre,0
vb.net,0
vektoren,0
venerologie,0
verfahrensentwicklung,0
verfahrenstechnikingenieur,0
verhaltensbiologie,0
verkehrstechnik,0
vermessungstechnikerin,0
versorgungstechniker,0
veterinärmediziner,0
vglb,0
viren,0
virologische,0
virus,0
viruses,0
visceralchirurgie,0
viszeralchirurgie,0
vmtla,0
webentwicklung,0
werkstechnik,0
werkstoffe,0
werkstoffmechanik,0
werkstoffwissenschaft,0
werkzeugkonstruktion,0
windenergieanlagen,0
wirbelsäulenchirurgie,0
wirkstoffe,0
wirkstoffen,0
wirkstoffentwicklung,0
wirkstoffforschung,0
wirkstoffproduktion,0
wirtschaftsmathematiker,0
wissenschaftl,0
wissenschaftlerin,0
wärmebehandlungstechnik,0
wärmeübertragung,0
xrf,0
zahlungssysteme,0
zahntechnik,0
zellanalyse,0
zellbasierte,0
zellbiologische,0
zellen,0
zellkultur,0
zellkulturen,0
zellkulturtechnik,0
zellsortierung,0
zelltherapie,0
zelluläre,0
zentrifugen,0
zoonosen,0
zooplankton,0
zytogenetik,0
ärztinnen,0
ökotrophologen,0
akustik,1
amtstierärztin,1
analytic,1
applikationsentwicklung,1
aquatische,1
arzneimitteln,1
aseptische,1
assistenzsysteme,1
autoimmune,1
betriebstechniker,1
biological,1
biologist,1
biomarkers,1
biosimilars,1
biostatistician,1
biotechnologe,1
biotechnologische,1
bus,1
chemiker,1
chirurgische,1
curie,1
diagnostik,1
electric,1
electro,1
elektrik,1
elektrokonstruktion,1
elektromechanik,1
elektromechaniker,1
elektronikentwicklung,1
engineers,1
entwicklungsingenieurin,1
erforschung,1
galvanik,1
geologe,1
immuno,1
implementierung,1
indikation,1
informatiker,1
informationssysteme,1
ingenieurswissenschaften,1
ionen,1
kameratechnik,1
laboratories,1
laborautomation,1
laboringenieur,1
labs,1
lebensmitteltechnologe,1
lin,1
lte,1
medizinprodukt,1
medizintechniker,1
microbial,1
naturwissenschaften,1
neurologische,1
numerische,1
onkologische,1
optics,1
optotechnik,1
orthopädietechnik,1
parenterale,1
pharmacy,1
physiklaborantin,1
proteinreinigung,1
reinigungsvalidierung,1
researchers,1
rna,1
schaltungen,1
sensoren,1
skin,1
steuergeräte,1
systemhaus,1
tenure,1
tumor,1
vermessungsingenieurin,1
wissenschaftlerinnen,1
ärztin,1
ärztlicher,1
analysen,2
arzt,2
bauzeichner,2
biologika,2
chemische,2
chemist,2
datenverarbeitung,2
diseases,2
elektroniker,2
functions,2
gene,2
genetic,2
mechanics,2
mechanik,2
mechanisms,2
medicine,2
modelling,2
naturwissenschaft,2
naturwissenschaftliche,2
oberarzt,2
pharmaceuticals,2
physikalische,2
programmer,2
programmierung,2
sensors,2
statistiker,2
technologies,2
versuchstierkunde,2
webshop,2
wound,2
chemicals,3
electronic,3
elektrische,3
elektronische,3
epigenetic,3
geschäftsbereich,3
imaging,3
matter,3
pharmazie,3
sensorik,3
tech,3
tiermedizinische,3
veranstaltungstechnik,3
verfahrenstechnik,3
analyses,4
analysis,4
asic,4
bauingenieurwesen,4
coatings,4
mechanical,4
medizinprodukten,4
polymers,4
tierärztin,4
f&b,5
mathematik,5
psychologe,5
simulation,5
researcher,6
electronics,8
elektrotechnik,9
